<svg width="40" height="40" viewBox="0 0 40 40" fill="none" xmlns="http://www.w3.org/2000/svg">
<rect width="40" height="40" rx="8" fill="white"/>
<g clip-path="url(#clip0_168_1008)">
<path d="M19.7214 28.3576C19.8143 28.3591 19.9071 28.3598 20 28.3598C24.4531 28.3598 28.063 26.6427 28.063 24.5246V16.0693H18.3649L15.8292 16.7081L14.7678 21.7317L17.4359 27.8669L19.7214 28.3576Z" fill="#525E77"/>
<path d="M17.5619 25.6026V15.4645H18.3649V15.2822H11.937V24.5245C11.937 26.5983 15.3974 28.2874 19.7214 28.3572C18.3761 27.6192 17.5619 26.6562 17.5619 25.6026Z" fill="#3B4456"/>
<path d="M15.1305 23.501C15.0786 23.5011 15.0273 23.49 14.9801 23.4685C14.9328 23.447 14.8908 23.4156 14.8567 23.3765C14.8227 23.3373 14.7974 23.2913 14.7827 23.2416C14.768 23.1918 14.7642 23.1395 14.7714 23.0881C15.0026 21.4531 15.6843 19.9582 16.7974 18.645C16.8598 18.5729 16.9482 18.5284 17.0433 18.5211C17.1384 18.5138 17.2325 18.5443 17.3053 18.6059C17.378 18.6676 17.4235 18.7555 17.4319 18.8505C17.4402 18.9455 17.4108 19.0399 17.3499 19.1134C16.3266 20.3207 15.7003 21.6921 15.4886 23.1895C15.4764 23.2758 15.4334 23.3549 15.3677 23.4121C15.3019 23.4693 15.2177 23.5009 15.1305 23.501ZM15.542 30.8598H14.5477C13.6086 30.8598 12.8655 30.4761 12.9283 30.0237L13.4254 26.4361C13.4825 26.0245 14.1906 25.7046 15.0449 25.7046C15.8992 25.7046 16.6073 26.0245 16.6644 26.4361L17.1615 30.0237C17.2242 30.4761 16.4811 30.8598 15.542 30.8598Z" fill="#FBF198"/>
<path d="M18.6762 9.28638L30.8484 11.9639C32.107 12.2407 32.4214 13.8903 31.3528 14.6106L24.0838 19.5108C23.7621 19.7277 23.3996 19.877 23.0184 19.9496C22.6371 20.0223 22.2452 20.0167 21.8661 19.9334L16.6071 18.7765L14.0649 17.9834L12.4571 12.765L17.0267 9.28642L18.6762 9.28638Z" fill="#6B7790"/>
<path d="M15.0449 26.1495C15.877 26.1495 16.5515 25.475 16.5515 24.6429C16.5515 23.8108 15.877 23.1362 15.0449 23.1362C14.2128 23.1362 13.5382 23.8108 13.5382 24.6429C13.5382 25.475 14.2128 26.1495 15.0449 26.1495Z" fill="#FFA93F"/>
<path d="M13.9561 14.5702C13.9561 12.3578 15.8346 10.4118 18.6762 9.28633L18.3777 9.22066C17.9216 9.12034 17.4499 9.11369 16.9912 9.2011C16.5325 9.28852 16.0963 9.46818 15.7091 9.72921L8.64721 14.4897C7.57865 15.2101 7.89299 16.8596 9.15158 17.1365L16.6071 18.7765C14.959 17.6606 13.9561 16.1865 13.9561 14.5702Z" fill="#525E77"/>
<path d="M20 15.8023C21.2911 15.8023 22.3377 15.2506 22.3377 14.5702C22.3377 13.8897 21.2911 13.3381 20 13.3381C18.709 13.3381 17.6624 13.8897 17.6624 14.5702C17.6624 15.2506 18.709 15.8023 20 15.8023Z" fill="#FBF198"/>
</g>
<defs>
<clipPath id="clip0_168_1008">
<rect width="24" height="24" fill="white" transform="translate(8 8)"/>
</clipPath>
</defs>
</svg>
